NAND/tek0001.csv

Model,MSO3012
Firmware Version,2.40

Waveform Type,ANALOG
Point Format,Y
Horizontal Units,s
Horizontal Scale,0.0002
Horizontal Delay,0
Sample Interval,2e-07
Record Length,10000
Gating,0.0% to 100.0%
Probe Attenuation,1
Vertical Units,V
Vertical Offset,0
Vertical Scale,2
Vertical Position,0
,
,
,
Label,
TIME,CH1
-1.000e-03,3.5875
-9.998e-04,4.80563
-9.996e-04,4.86719
-9.994e-04,4.86656
-9.992e-04,4.87688
-9.990e-04,4.87625
-9.988e-04,4.87156
-9.986e-04,4.87437
-9.984e-04,4.87688
-9.982e-04,4.87719
-9.980e-04,4.87219
-9.978e-04,4.87875
-9.976e-04,4.88375
-9.974e-04,4.88406
-9.972e-04,4.88187
-9.970e-04,4.87312
-9.968e-04,4.88312
-9.966e-04,4.89094
-9.964e-04,4.88938
-9.962e-04,4.89406
-9.960e-04,4.89125
-9.958e-04,4.89562
-9.956e-04,4.88719
-9.954e-04,4.89906
-9.952e-04,4.89625
-9.950e-04,4.9
-9.948e-04,4.89813
-9.946e-04,4.90125
-9.944e-04,4.89719
-9.942e-04,4.90562
-9.940e-04,4.90719
-9.938e-04,4.90656
-9.936e-04,4.90469
-9.934e-04,4.90906
-9.932e-04,4.89969
-9.930e-04,4.90094
-9.928e-04,4.90937
-9.926e-04,4.90469
-9.924e-04,4.91406
-9.922e-04,4.90875
-9.920e-04,4.90781
-9.918e-04,4.9125
-9.916e-04,4.91312
-9.914e-04,4.91875
-9.912e-04,4.9125
-9.910e-04,4.91625
-9.908e-04,4.91688
-9.906e-04,4.90875
-9.904e-04,4.91406
-9.902e-04,4.92031
-9.900e-04,4.91031
-9.898e-04,4.91812
-9.896e-04,4.91938
-9.894e-04,4.91719
-9.892e-04,4.91906
-9.890e-04,4.91688
-9.888e-04,4.91469
-9.886e-04,4.91656
-9.884e-04,4.92
-9.882e-04,4.92375
-9.880e-04,4.92344
-9.878e-04,4.91875
-9.876e-04,4.91437
-9.874e-04,4.91688
-9.872e-04,4.91531
-9.870e-04,4.91781
-9.868e-04,4.91531
-9.866e-04,4.91094
-9.864e-04,4.91406
-9.862e-04,4.91844
-9.860e-04,4.92188
-9.858e-04,4.91531
-9.856e-04,4.91469
-9.854e-04,4.91
-9.852e-04,4.91875
-9.850e-04,4.91594
-9.848e-04,4.91844
-9.846e-04,4.91281
-9.844e-04,4.92063
-9.842e-04,4.91656
-9.840e-04,4.91594
-9.838e-04,4.91063
-9.836e-04,4.915
-9.834e-04,4.925
-9.832e-04,4.9225
-9.830e-04,4.91688
-9.828e-04,4.91281
-9.826e-04,4.91875
-9.824e-04,4.92
-9.822e-04,4.91531
-9.820e-04,4.91844
-9.818e-04,4.91719
-9.816e-04,4.9175
-9.814e-04,4.90969
-9.812e-04,4.91469
-9.810e-04,4.91969
-9.808e-04,4.92188
-9.806e-04,4.91781
-9.804e-04,4.91406
-9.802e-04,4.91781
-9.800e-04,4.91625
-9.798e-04,4.92219
-9.796e-04,4.91406
-9.794e-04,4.91031
-9.792e-04,4.91281
-9.790e-04,4.91063
-9.788e-04,4.91156
-9.786e-04,4.91906
-9.784e-04,4.91906
-9.782e-04,4.91375
-9.780e-04,4.91406
-9.778e-04,4.91437
-9.776e-04,4.92531
-9.774e-04,4.9175
-9.772e-04,4.91469
-9.770e-04,4.91375
-9.768e-04,4.91125
-9.766e-04,4.91375
-9.764e-04,4.91656
-9.762e-04,4.91656
-9.760e-04,4.91219
-9.758e-04,4.92031
-9.756e-04,4.91312
-9.754e-04,4.91375
-9.752e-04,4.91125
-9.750e-04,4.92281
-9.748e-04,4.91594
-9.746e-04,4.92281
-9.744e-04,4.91531
-9.742e-04,4.92031
-9.740e-04,4.91563
-9.738e-04,4.915
-9.736e-04,4.91594
-9.734e-04,4.90781
-9.732e-04,4.91219
-9.730e-04,4.91844
-9.728e-04,4.90969
-9.726e-04,4.91531
-9.724e-04,4.915
-9.722e-04,4.91437
-9.720e-04,4.9175
-9.718e-04,4.91594
-9.716e-04,4.91625
-9.714e-04,4.91281
-9.712e-04,4.92594
-9.710e-04,4.92281
-9.708e-04,4.92063
-9.706e-04,4.92125
-9.704e-04,4.91531
-9.702e-04,4.92031
-9.700e-04,4.91781
-9.698e-04,4.92094
-9.696e-04,4.92094
-9.694e-04,4.92094
-9.692e-04,4.91531
-9.690e-04,4.92531
-9.688e-04,4.91312
-9.686e-04,4.92125
-9.684e-04,4.91437
-9.682e-04,4.92063
-9.680e-04,4.91875
-9.678e-04,4.9125
-9.676e-04,4.91594
-9.674e-04,4.91094
-9.672e-04,4.91125
-9.670e-04,4.91938
-9.668e-04,4.91469
-9.666e-04,4.90656
-9.664e-04,4.91563
-9.662e-04,4.91281
-9.660e-04,4.90844
-9.658e-04,4.90906
-9.656e-04,4.90719
-9.654e-04,4.91281
-9.652e-04,4.90813
-9.650e-04,4.91719
-9.648e-04,4.91781
-9.646e-04,4.91531
-9.644e-04,4.91656
-9.642e-04,4.91938
-9.640e-04,4.91844
-9.638e-04,4.9175
-9.636e-04,4.91844
-9.634e-04,4.91844
-9.632e-04,4.92531
-9.630e-04,4.91563
-9.628e-04,4.91344
-9.626e-04,4.91281
-9.624e-04,4.91094
-9.622e-04,4.91594
-9.620e-04,4.91063
-9.618e-04,4.91188
-9.616e-04,4.9125
-9.614e-04,4.91375
-9.612e-04,4.9175
-9.610e-04,4.91312
-9.608e-04,4.91906
-9.606e-04,4.91625
-9.604e-04,4.91656
-9.602e-04,4.91156
-9.600e-04,4.91469
-9.598e-04,4.91094
-9.596e-04,4.90813
-9.594e-04,4.91969
-9.592e-04,4.9
-9.590e-04,4.91344
-9.588e-04,4.91125
-9.586e-04,4.9125
-9.584e-04,4.91656
-9.582e-04,4.91469
-9.580e-04,4.90969
-9.578e-04,4.915
-9.576e-04,4.91969
-9.574e-04,4.91406
-9.572e-04,4.91875
-9.570e-04,4.92125
-9.568e-04,4.91156
-9.566e-04,4.91344
-9.564e-04,4.91656
-9.562e-04,4.91156
-9.560e-04,4.9125
-9.558e-04,4.90969
-9.556e-04,4.90062
-9.554e-04,4.91875
-9.552e-04,4.9125
-9.550e-04,4.91875
-9.548e-04,4.92594
-9.546e-04,4.91375
-9.544e-04,4.9175
-9.542e-04,4.9225
-9.540e-04,4.91125
-9.538e-04,4.9175
-9.536e-04,4.91781
-9.534e-04,4.90813
-9.532e-04,4.91375
-9.530e-04,4.91563
-9.528e-04,4.91125
-9.526e-04,4.91844
-9.524e-04,4.91938
-9.522e-04,4.91406
-9.520e-04,4.9175
-9.518e-04,4.9125
-9.516e-04,4.9125
-9.514e-04,4.91688
-9.512e-04,4.91219
-9.510e-04,4.92188
-9.508e-04,4.91469
-9.506e-04,4.91406
-9.504e-04,4.92031
-9.502e-04,4.91563
-9.500e-04,4.91156
-9.498e-04,4.915
-9.496e-04,4.92344
-9.494e-04,4.91812
-9.492e-04,4.91312
-9.490e-04,4.91469
-9.488e-04,4.92531
-9.486e-04,4.91437
-9.484e-04,4.91125
-9.482e-04,4.91938
-9.480e-04,4.91625
-9.478e-04,4.915
-9.476e-04,4.91375
-9.474e-04,4.91219
-9.472e-04,4.91594
-9.470e-04,4.91688
-9.468e-04,4.905
-9.466e-04,4.90719
-9.464e-04,4.91031
-9.462e-04,4.91219
-9.460e-04,4.91375
-9.458e-04,4.90656
-9.456e-04,4.90719
-9.454e-04,4.91906
-9.452e-04,4.91719
-9.450e-04,4.91906
-9.448e-04,4.9075
-9.446e-04,4.91469
-9.444e-04,4.91344
-9.442e-04,4.91406
-9.440e-04,4.91375
-9.438e-04,4.90906
-9.436e-04,4.92125
-9.434e-04,4.92031
-9.432e-04,4.91
-9.430e-04,4.90375
-9.428e-04,4.90625
-9.426e-04,4.91063
-9.424e-04,4.90875
-9.422e-04,4.91469
-9.420e-04,4.91844
-9.418e-04,4.91969
-9.416e-04,4.9125
-9.414e-04,4.91156
-9.412e-04,4.91156
-9.410e-04,4.91594
-9.408e-04,4.91156
-9.406e-04,4.91906
-9.404e-04,4.91094
-9.402e-04,4.91469
-9.400e-04,4.91344
-9.398e-04,4.90625
-9.396e-04,4.91219
-9.394e-04,4.91156
-9.392e-04,4.91969
-9.390e-04,4.91906
-9.388e-04,4.91563
-9.386e-04,4.91188
-9.384e-04,4.92156
-9.382e-04,4.91437
-9.380e-04,4.91781
-9.378e-04,4.91344
-9.376e-04,4.91781
-9.374e-04,4.91688
-9.372e-04,4.91812
-9.370e-04,4.91312
-9.368e-04,4.91688
-9.366e-04,4.90625
-9.364e-04,4.9175
-9.362e-04,4.91406
-9.360e-04,4.91656
-9.358e-04,4.91375
-9.356e-04,4.91688
-9.354e-04,4.90969
-9.352e-04,4.91094
-9.350e-04,4.90875
-9.348e-04,4.91844
-9.346e-04,4.91437
-9.344e-04,4.91281
-9.342e-04,4.92312
-9.340e-04,4.90781
-9.338e-04,4.90906
-9.336e-04,4.91844
-9.334e-04,4.91312
-9.332e-04,4.91031
-9.330e-04,4.91875
-9.328e-04,4.91938
-9.326e-04,4.915
-9.324e-04,4.92125
-9.322e-04,4.90719
-9.320e-04,4.91875
-9.318e-04,4.90937
-9.316e-04,4.90937
-9.314e-04,4.91094
-9.312e-04,4.91281
-9.310e-04,4.90688
-9.308e-04,4.91844
-9.306e-04,4.91375
-9.304e-04,4.90156
-9.302e-04,4.91188
-9.300e-04,4.91
-9.298e-04,4.91312
-9.296e-04,4.90906
-9.294e-04,4.90844
-9.292e-04,4.90906
-9.290e-04,4.91
-9.288e-04,4.91563
-9.286e-04,4.905
-9.284e-04,4.91094
-9.282e-04,4.90969
-9.280e-04,4.90719
-9.278e-04,4.91031
-9.276e-04,4.91531
-9.274e-04,4.91688
-9.272e-04,4.91625
-9.270e-04,4.91344
-9.268e-04,4.91281
-9.266e-04,4.925
-9.264e-04,4.91188
-9.262e-04,4.91063
-9.260e-04,4.91656
-9.258e-04,4.91688
-9.256e-04,4.90906
-9.254e-04,4.90875
-9.252e-04,4.91312
-9.250e-04,4.91781
-9.248e-04,4.91625
-9.246e-04,4.915
-9.244e-04,4.91625
-9.242e-04,4.91688
-9.240e-04,4.91406
-9.238e-04,4.91063
-9.236e-04,4.91625
-9.234e-04,4.91719
-9.232e-04,4.91531
-9.230e-04,4.91188
-9.228e-04,4.90375
-9.226e-04,4.90469
-9.224e-04,4.90625
-9.222e-04,4.90625
-9.220e-04,4.9125
-9.218e-04,4.90719
-9.216e-04,4.90906
-9.214e-04,4.91375
-9.212e-04,4.91594
-9.210e-04,4.91531
-9.208e-04,4.91812
-9.206e-04,4.91812
-9.204e-04,4.92438
-9.202e-04,4.92219
-9.200e-04,4.91281
-9.198e-04,4.91812
-9.196e-04,4.91375
-9.194e-04,4.91406
-9.192e-04,4.91156
-9.190e-04,4.91437
-9.188e-04,4.905
-9.186e-04,4.92156
-9.184e-04,4.90875
-9.182e-04,4.91781
-9.180e-04,4.91312
-9.178e-04,4.90719
-9.176e-04,4.925
-9.174e-04,4.92375
-9.172e-04,4.92406
-9.170e-04,4.91688
-9.168e-04,4.91344
-9.166e-04,4.91781
-9.164e-04,4.92344
-9.162e-04,4.90906
-9.160e-04,4.91688
-9.158e-04,4.91031
-9.156e-04,4.91594
-9.154e-04,4.91063
-9.152e-04,4.91312
-9.150e-04,4.90937
-9.148e-04,4.91375
-9.146e-04,4.90469
-9.144e-04,4.91188
-9.142e-04,4.92063
-9.140e-04,4.9175
-9.138e-04,4.92031
-9.136e-04,4.91188
-9.134e-04,4.91563
-9.132e-04,4.91688
-9.130e-04,4.91625
-9.128e-04,4.91156
-9.126e-04,4.90969
-9.124e-04,4.90781
-9.122e-04,4.91656
-9.120e-04,4.90781
-9.118e-04,4.91375
-9.116e-04,4.90844
-9.114e-04,4.90969
-9.112e-04,4.91156
-9.110e-04,4.91656
-9.108e-04,4.91281
-9.106e-04,4.91063
-9.104e-04,4.91406
-9.102e-04,4.915
-9.100e-04,4.91312
-9.098e-04,4.91625
-9.096e-04,4.91312
-9.094e-04,4.91656
-9.092e-04,4.91531
-9.090e-04,4.90875
-9.088e-04,4.90656
-9.086e-04,4.91188
-9.084e-04,4.91563
-9.082e-04,4.91688
-9.080e-04,4.90688
-9.078e-04,4.91719
-9.076e-04,4.91125
-9.074e-04,4.91125
-9.072e-04,4.90937
-9.070e-04,4.91156
-9.068e-04,4.91531
-9.066e-04,4.91563
-9.064e-04,4.90406
-9.062e-04,4.90875
-9.060e-04,4.90406
-9.058e-04,4.91281
-9.056e-04,4.90781
-9.054e-04,4.91875
-9.052e-04,4.91219
-9.050e-04,4.91281
-9.048e-04,4.91719
-9.046e-04,4.92031
-9.044e-04,4.9175
-9.042e-04,4.91563
-9.040e-04,4.91531
-9.038e-04,4.9125
-9.036e-04,4.91594
-9.034e-04,4.9075
-9.032e-04,4.90594
-9.030e-04,4.90656
-9.028e-04,4.90875
-9.026e-04,4.90813
-9.024e-04,4.89938
-9.022e-04,4.91
-9.020e-04,4.91344
-9.018e-04,4.91469
-9.016e-04,4.90562
-9.014e-04,4.90437
-9.012e-04,4.91031
-9.010e-04,4.91188
-9.008e-04,4.9125
-9.006e-04,4.91156
-9.004e-04,4.90625
-9.002e-04,4.90781
-9.000e-04,4.91125
-8.998e-04,4.91094
-8.996e-04,4.90937
-8.994e-04,4.90594
-8.992e-04,4.89969
-8.990e-04,4.90969
-8.988e-04,4.91781
-8.986e-04,4.91281
-8.984e-04,4.90656
-8.982e-04,4.90656
-8.980e-04,4.91875
-8.978e-04,4.91563
-8.976e-04,4.91437
-8.974e-04,4.90219
-8.972e-04,4.91
-8.970e-04,4.90937
-8.968e-04,4.91656
-8.966e-04,4.91125
-8.964e-04,4.90688
-8.962e-04,4.91
-8.960e-04,4.89562
-8.958e-04,4.91063
-8.956e-04,4.91094
-8.954e-04,4.90813
-8.952e-04,4.90844
-8.950e-04,4.91437
-8.948e-04,4.91125
-8.946e-04,4.90969
-8.944e-04,4.91625
-8.942e-04,4.90781
-8.940e-04,4.91375
-8.938e-04,4.91469
-8.936e-04,4.91188
-8.934e-04,4.90875
-8.932e-04,4.90875
-8.930e-04,4.91156
-8.928e-04,4.905
-8.926e-04,4.90562
-8.924e-04,4.89875
-8.922e-04,4.90813
-8.920e-04,4.90781
-8.918e-04,4.91594
-8.916e-04,4.91406
-8.914e-04,4.91125
-8.912e-04,4.91156
-8.910e-04,4.90875
-8.908e-04,4.90688
-8.906e-04,4.91031
-8.904e-04,4.90969
-8.902e-04,4.91
-8.900e-04,4.91
-8.898e-04,4.91281
-8.896e-04,4.90813
-8.894e-04,4.915
-8.892e-04,4.91312
-8.890e-04,4.90469
-8.888e-04,4.90969
-8.886e-04,4.9025
-8.884e-04,4.9125
-8.882e-04,4.90656
-8.880e-04,4.91219
-8.878e-04,4.91031
-8.876e-04,4.91563
-8.874e-04,4.90969
-8.872e-04,4.9125
-8.870e-04,4.90594
-8.868e-04,4.915
-8.866e-04,4.90688
-8.864e-04,4.91094
-8.862e-04,4.90469
-8.860e-04,4.91094
-8.858e-04,4.9025
-8.856e-04,4.90594
-8.854e-04,4.91031
-8.852e-04,4.90469
-8.850e-04,4.90813
-8.848e-04,4.89688
-8.846e-04,4.90281
-8.844e-04,4.90719
-8.842e-04,4.89719
-8.840e-04,4.90062
-8.838e-04,4.90688
-8.836e-04,4.90562
-8.834e-04,4.9175
-8.832e-04,4.90969
-8.830e-04,4.91125
-8.828e-04,4.90937
-8.826e-04,4.91094
-8.824e-04,4.91844
-8.822e-04,4.90937
-8.820e-04,4.91875
-8.818e-04,4.91312
-8.816e-04,4.9125
-8.814e-04,4.905
-8.812e-04,4.91281
-8.810e-04,4.91219
-8.808e-04,4.90875
-8.806e-04,4.9175
-8.804e-04,4.92156
-8.802e-04,4.92063
-8.800e-04,4.92312
-8.798e-04,4.91563
-8.796e-04,4.91156
-8.794e-04,4.91063
-8.792e-04,4.91125
-8.790e-04,4.90937
-8.788e-04,4.90906
-8.786e-04,4.91063
-8.784e-04,4.90469
-8.782e-04,4.90937
-8.780e-04,4.91281
-8.778e-04,4.91875
-8.776e-04,4.90437
-8.774e-04,4.91375
-8.772e-04,4.9125
-8.770e-04,4.91875
-8.768e-04,4.91594
-8.766e-04,4.91437
-8.764e-04,4.90437
-8.762e-04,4.91156
-8.760e-04,4.9125
-8.758e-04,4.91
-8.756e-04,4.91812
-8.754e-04,4.91344
-8.752e-04,4.91063
-8.750e-04,4.915
-8.748e-04,4.91125
-8.746e-04,4.91281
-8.744e-04,4.91094
-8.742e-04,4.91437
-8.740e-04,4.91125
-8.738e-04,4.91281
-8.736e-04,4.90937
-8.734e-04,4.91312
-8.732e-04,4.90156
-8.730e-04,4.91406
-8.728e-04,4.91688
-8.726e-04,4.91
-8.724e-04,4.90594
-8.722e-04,4.9125
-8.720e-04,4.91563
-8.718e-04,4.91125
-8.716e-04,4.91188
-8.714e-04,4.91188
-8.712e-04,4.90406
-8.710e-04,4.905
-8.708e-04,4.90281
-8.706e-04,4.91437
-8.704e-04,4.91219
-8.702e-04,4.91156
-8.700e-04,4.91
-8.698e-04,4.91281
-8.696e-04,4.9125
-8.694e-04,4.90656
-8.692e-04,4.91688
-8.690e-04,4.91281
-8.688e-04,4.92094
-8.686e-04,4.91281
-8.684e-04,4.90844
-8.682e-04,4.9175
-8.680e-04,4.91219
-8.678e-04,4.90375
-8.676e-04,4.90969
-8.674e-04,4.91531
-8.672e-04,4.91375
-8.670e-04,4.9075
-8.668e-04,4.91344
-8.666e-04,4.91938
-8.664e-04,4.92312
-8.662e-04,4.91156
-8.660e-04,4.91437
-8.658e-04,4.91344
-8.656e-04,4.91031
-8.654e-04,4.91812
-8.652e-04,4.90906
-8.650e-04,4.91031
-8.648e-04,4.90719
-8.646e-04,4.90406
-8.644e-04,4.91563
-8.642e-04,4.91
-8.640e-04,4.91594
-8.638e-04,4.91281
-8.636e-04,4.91906
-8.634e-04,4.91219
-8.632e-04,4.92125
-8.630e-04,4.91281
-8.628e-04,4.91656
-8.626e-04,4.91781
-8.624e-04,4.92625
-8.622e-04,4.91812
-8.620e-04,4.91375
-8.618e-04,4.90844
-8.616e-04,4.91031
-8.614e-04,4.92
-8.612e-04,4.91406
-8.610e-04,4.91125
-8.608e-04,4.9175
-8.606e-04,4.90813
-8.604e-04,4.92031
-8.602e-04,4.91594
-8.600e-04,4.92031
-8.598e-04,4.91969
-8.596e-04,4.91563
-8.594e-04,4.91719
-8.592e-04,4.9225
-8.590e-04,4.91437
-8.588e-04,4.91063
-8.586e-04,4.91344
-8.584e-04,4.91125
-8.582e-04,4.91531
-8.580e-04,4.91094
-8.578e-04,4.90969
-8.576e-04,4.90937
-8.574e-04,4.90906
-8.572e-04,4.90875
-8.570e-04,4.91031
-8.568e-04,4.91
-8.566e-04,4.90625
-8.564e-04,4.91375
-8.562e-04,4.91688
-8.560e-04,4.905
-8.558e-04,4.91219
-8.556e-04,4.91625
-8.554e-04,4.91594
-8.552e-04,4.91063
-8.550e-04,4.90594
-8.548e-04,4.91344
-8.546e-04,4.90969
-8.544e-04,4.90844
-8.542e-04,4.90719
-8.540e-04,4.91219
-8.538e-04,4.90719
-8.536e-04,4.91969
-8.534e-04,4.91344
-8.532e-04,4.91156
-8.530e-04,4.90813
-8.528e-04,4.92219
-8.526e-04,4.9125
-8.524e-04,4.91312
-8.522e-04,4.91469
-8.520e-04,4.91375
-8.518e-04,4.91375
-8.516e-04,4.91312
-8.514e-04,4.915
-8.512e-04,4.90813
-8.510e-04,4.91406
-8.508e-04,4.91469
-8.506e-04,4.91156
-8.504e-04,4.91281
-8.502e-04,4.91219
-8.500e-04,4.91125
-8.498e-04,4.91563
-8.496e-04,4.91281
-8.494e-04,4.91375
-8.492e-04,4.91312
-8.490e-04,4.91031
-8.488e-04,4.91
-8.486e-04,4.91031
-8.484e-04,4.90375
-8.482e-04,4.91406
-8.480e-04,4.91188
-8.478e-04,4.91437
-8.476e-04,4.90219
-8.474e-04,4.90781
-8.472e-04,4.91531
-8.470e-04,4.9125
-8.468e-04,4.915
-8.466e-04,4.915
-8.464e-04,4.91375
-8.462e-04,4.91
-8.460e-04,4.91312
-8.458e-04,4.91094
-8.456e-04,4.91656
-8.454e-04,4.91469
-8.452e-04,4.91188
-8.450e-04,4.91094
-8.448e-04,4.91219
-8.446e-04,4.91719
-8.444e-04,4.91781
-8.442e-04,4.91125
-8.440e-04,4.92
-8.438e-04,4.90781
-8.436e-04,4.91312
-8.434e-04,4.91125
-8.432e-04,4.91156
-8.430e-04,4.91656
-8.428e-04,4.915
-8.426e-04,4.91969
-8.424e-04,4.92063
-8.422e-04,4.91875
-8.420e-04,4.92594
-8.418e-04,4.90344
-8.416e-04,4.92344
-8.414e-04,4.90844
-8.412e-04,4.9225
-8.410e-04,4.9125
-8.408e-04,4.91281
-8.406e-04,4.91312
-8.404e-04,4.91563
-8.402e-04,4.91156
-8.400e-04,4.91281
-8.398e-04,4.91469
-8.396e-04,4.90688
-8.394e-04,4.90875
-8.392e-04,4.91531
-8.390e-04,4.91531
-8.388e-04,4.90969
-8.386e-04,4.91094
-8.384e-04,4.91594
-8.382e-04,4.905
-8.380e-04,4.90656
-8.378e-04,4.91531
-8.376e-04,4.9125
-8.374e-04,4.91156
-8.372e-04,4.91563
-8.370e-04,4.90594
-8.368e-04,4.90062
-8.366e-04,4.91
-8.364e-04,4.90813
-8.362e-04,4.92031
-8.360e-04,4.91156
-8.358e-04,4.91625
-8.356e-04,4.90594
-8.354e-04,4.90813
-8.352e-04,4.90719
-8.350e-04,4.91406
-8.348e-04,4.89781
-8.346e-04,4.90562
-8.344e-04,4.90813
-8.342e-04,4.91312
-8.340e-04,4.90313
-8.338e-04,4.89969
-8.336e-04,4.905
-8.334e-04,4.91719
-8.332e-04,4.90813
-8.330e-04,4.90969
-8.328e-04,4.91531
-8.326e-04,4.90813
-8.324e-04,4.91219
-8.322e-04,4.91531
-8.320e-04,4.91688
-8.318e-04,4.91
-8.316e-04,4.91344
-8.314e-04,4.90469
-8.312e-04,4.91219
-8.310e-04,4.90562
-8.308e-04,4.90281
-8.306e-04,4.90031
-8.304e-04,4.90281
-8.302e-04,4.89781
-8.300e-04,4.9175
-8.298e-04,4.905
-8.296e-04,4.90969
-8.294e-04,4.91063
-8.292e-04,4.9075
-8.290e-04,4.91312
-8.288e-04,4.91406
-8.286e-04,4.91188
-8.284e-04,4.91219
-8.282e-04,4.91156
-8.280e-04,4.90188
-8.278e-04,4.91406
-8.276e-04,4.90906
-8.274e-04,4.90625
-8.272e-04,4.90813
-8.270e-04,4.90625
-8.268e-04,4.91469
-8.266e-04,4.9075
-8.264e-04,4.91344
-8.262e-04,4.90313
-8.260e-04,4.9075
-8.258e-04,4.91625
-8.256e-04,4.91094
-8.254e-04,4.91563
-8.252e-04,4.90406
-8.250e-04,4.91469
-8.248e-04,4.905
-8.246e-04,4.91281
-8.244e-04,4.90688
-8.242e-04,4.90688
-8.240e-04,4.91219
-8.238e-04,4.89938
-8.236e-04,4.91219
-8.234e-04,4.90719
-8.232e-04,4.91406
-8.230e-04,4.91656
-8.228e-04,4.91563
-8.226e-04,4.90688
-8.224e-04,4.90937
-8.222e-04,4.90906
-8.220e-04,4.91094
-8.218e-04,4.90062
-8.216e-04,4.90719
-8.214e-04,4.90937
-8.212e-04,4.90719
-8.210e-04,4.90719
-8.208e-04,4.90625
-8.206e-04,4.91563
-8.204e-04,4.905
-8.202e-04,4.9075
-8.200e-04,4.91094
-8.198e-04,4.90344
-8.196e-04,4.90344
-8.194e-04,4.90469
-8.192e-04,4.9125
-8.190e-04,4.91437
-8.188e-04,4.92
-8.186e-04,4.91
-8.184e-04,4.92031
-8.182e-04,4.90781
-8.180e-04,4.91781
-8.178e-04,4.90906
-8.176e-04,4.9075
-8.174e-04,4.90813
-8.172e-04,4.90594
-8.170e-04,4.905
-8.168e-04,4.90875
-8.166e-04,4.91094
-8.164e-04,4.91375
-8.162e-04,4.9075
-8.160e-04,4.90219
-8.158e-04,4.90031
-8.156e-04,4.905
-8.154e-04,4.90656
-8.152e-04,4.90313
-8.150e-04,4.90094
-8.148e-04,4.91781
-8.146e-04,4.91406
-8.144e-04,4.91312
-8.142e-04,4.91563
-8.140e-04,4.90688
-8.138e-04,4.90937
-8.136e-04,4.91406
-8.134e-04,4.90781
-8.132e-04,4.91219
-8.130e-04,4.90813
-8.128e-04,4.90969
-8.126e-04,4.90437
-8.124e-04,4.91656
-8.122e-04,4.91281
-8.120e-04,4.90906
-8.118e-04,4.91156
-8.116e-04,4.90437
-8.114e-04,4.91156
-8.112e-04,4.90469
-8.110e-04,4.90406
-8.108e-04,4.915
-8.106e-04,4.90469
-8.104e-04,4.91312
-8.102e-04,4.91
-8.100e-04,4.9075
-8.098e-04,4.9025
-8.096e-04,4.90688
-8.094e-04,4.91063
-8.092e-04,4.9025
-8.090e-04,4.90188
-8.088e-04,4.90844
-8.086e-04,4.91125
-8.084e-04,4.91719
-8.082e-04,4.91094
-8.080e-04,4.91031
-8.078e-04,4.91625
-8.076e-04,4.90344
-8.074e-04,4.91156
-8.072e-04,4.90719
-8.070e-04,4.90656
-8.068e-04,4.90906
-8.066e-04,4.9025
-8.064e-04,4.90719
-8.062e-04,4.90719
-8.060e-04,4.915
-8.058e-04,4.91125
-8.056e-04,4.91688
-8.054e-04,4.91344
-8.052e-04,4.91781
-8.050e-04,4.91531
-8.048e-04,4.91125
-8.046e-04,4.9025
-8.044e-04,4.90656
-8.042e-04,4.90688
-8.040e-04,4.90313
-8.038e-04,4.91312
-8.036e-04,4.91031
-8.034e-04,4.91156
-8.032e-04,4.91125
-8.030e-04,4.91156
-8.028e-04,4.91688
-8.026e-04,4.91031
-8.024e-04,4.91563
-8.022e-04,4.91312
-8.020e-04,4.91063
-8.018e-04,4.91344
-8.016e-04,4.91219
-8.014e-04,4.90813
-8.012e-04,4.90437
-8.010e-04,4.90969
-8.008e-04,4.91437
-8.006e-04,4.90875
-8.004e-04,4.91
-8.002e-04,4.91437
-8.000e-04,4.90188
-7.998e-04,4.91031
-7.996e-04,4.9
-7.994e-04,4.91
-7.992e-04,4.90906
-7.990e-04,4.90969
-7.988e-04,4.90656
-7.986e-04,4.92156
-7.984e-04,4.91938
-7.982e-04,4.91344
-7.980e-04,4.90781
-7.978e-04,4.91344
-7.976e-04,4.91125
-7.974e-04,4.91031
-7.972e-04,4.90813
-7.970e-04,4.91188
-7.968e-04,4.90937
-7.966e-04,4.91125
-7.964e-04,4.90969
-7.962e-04,4.90656
-7.960e-04,4.90313
-7.958e-04,4.91344
-7.956e-04,4.91219
-7.954e-04,4.91125
-7.952e-04,4.91812
-7.950e-04,4.91375
-7.948e-04,4.91656
-7.946e-04,4.90813
-7.944e-04,4.91594
-7.942e-04,4.90688
-7.940e-04,4.90937
-7.938e-04,4.90875
-7.936e-04,4.90937
-7.934e-04,4.91031
-7.932e-04,4.90688
-7.930e-04,4.9125
-7.928e-04,4.91344
-7.926e-04,4.91219
-7.924e-04,4.91125
-7.922e-04,4.9175
-7.920e-04,4.91219
-7.918e-04,4.915
-7.916e-04,4.91531
-7.914e-04,4.91406
-7.912e-04,4.90344
-7.910e-04,4.91344
-7.908e-04,4.90969
-7.906e-04,4.91312
